instaeda • instaeda
…
Data Cleansing

With the function divide_and_fill(), you can impute missing values in numerical columns. You can fill the the missing values with:

mean

median

random

In addition, you can also shuffle the data frame.

divide_and_fill(input_df, strategy='median', random=TRUE)
#> [1] "Try random shuffle!"
#> # A tibble: 344 x 8
#>    species island    bill_length_mm bill_depth_mm flipper_length_mm body_mass_g
#>    <fct>   <fct>              <dbl>         <dbl>             <dbl>       <dbl>
#>  1 Adelie  Biscoe              38.1          17                 181        3175
#>  2 Adelie  Torgersen           33.5          19                 190        3600
#>  3 Gentoo  Biscoe              50            15.3               220        5550
#>  4 Adelie  Dream               36.6          18.4               184        3475
#>  5 Adelie  Dream               41.3          20.3               194        3550
#>  6 Gentoo  Biscoe              47.7          15                 216        4750
#>  7 Gentoo  Biscoe              43.6          13.9               217        4900
#>  8 Adelie  Dream               37.2          18.1               178        3900
#>  9 Adelie  Biscoe              35            17.9               190        3450
#> 10 Gentoo  Biscoe              45.1          14.5               215        5000
#> # … with 334 more rows, and 2 more variables: sex <fct>, year <dbl>
…
